{
  "Comment.nvim": { "branch": "master", "commit": "e30b7f2008e52442154b66f7c519bfd2f1e32acb" },
  "LuaSnip": { "branch": "master", "commit": "33b06d72d220aa56a7ce80a0dd6f06c70cd82b9d" },
  "ReplaceWithRegister": { "branch": "master", "commit": "832efc23111d19591d495dc72286de2fb0b09345" },
  "cmp-buffer": { "branch": "main", "commit": "3022dbc9166796b644a841a02de8dd1cc1d311fa" },
  "cmp-nvim-lsp": { "branch": "main", "commit": "99290b3ec1322070bcfb9e846450a46f6efa50f0" },
  "cmp-path": { "branch": "main", "commit": "91ff86cd9c29299a64f968ebb45846c485725f23" },
  "cmp_luasnip": { "branch": "master", "commit": "98d9cb5c2c38532bd9bdb481067b20fea8f32e90" },
  "friendly-snippets": { "branch": "main", "commit": "efff286dd74c22f731cdec26a70b46e5b203c619" },
  "gitsigns.nvim": { "branch": "main", "commit": "5f808b5e4fef30bd8aca1b803b4e555da07fc412" },
  "go.nvim": { "branch": "master", "commit": "c6d5ca26377d01c4de1f7bff1cd62c8b43baa6bc" },
  "lazy.nvim": { "branch": "main", "commit": "7e6c863bc7563efbdd757a310d17ebc95166cef3" },
  "lspkind.nvim": { "branch": "master", "commit": "d79a1c3299ad0ef94e255d045bed9fa26025dab6" },
  "lualine.nvim": { "branch": "master", "commit": "2a5bae925481f999263d6f5ed8361baef8df4f83" },
  "mason-lspconfig.nvim": { "branch": "main", "commit": "8e46de9241d3997927af12196bd8faa0ed08c29a" },
  "mason-null-ls.nvim": { "branch": "main", "commit": "de19726de7260c68d94691afb057fa73d3cc53e7" },
  "mason.nvim": { "branch": "main", "commit": "e2f7f9044ec30067bc11800a9e266664b88cda22" },
  "none-ls.nvim": { "branch": "main", "commit": "c279e541f73a2deea9deb5231b9c037678dd6353" },
  "nvim-cmp": { "branch": "main", "commit": "3403e2e9391ed0a28c3afddd8612701b647c8e26" },
  "nvim-lspconfig": { "branch": "master", "commit": "c502e4d288d1e29b46f6b78aa4b375a40c82e8b0" },
  "nvim-tree.lua": { "branch": "master", "commit": "f7b76cd1a75615c8d6254fc58bedd2a7304eb7d8" },
  "nvim-treesitter": { "branch": "master", "commit": "cfbbdd5effbde3d47d2d662e67cfcd62a93b783f" },
  "nvim-web-devicons": { "branch": "master", "commit": "1736cb81bdc42e1ee206081a161bdb2af68fb7a1" },
  "plenary.nvim": { "branch": "master", "commit": "2d9b06177a975543726ce5c73fca176cedbffe9d" },
  "rust.vim": { "branch": "master", "commit": "889b9a7515db477f4cb6808bef1769e53493c578" },
  "telescope-fzf-native.nvim": { "branch": "main", "commit": "dae2eac9d91464448b584c7949a31df8faefec56" },
  "telescope.nvim": { "branch": "master", "commit": "2eca9ba22002184ac05eddbe47a7fe2d5a384dfc" },
  "tokyonight.nvim": { "branch": "main", "commit": "45d22cf0e1b93476d3b6d362d720412b3d34465c" },
  "typescript-tools.nvim": { "branch": "master", "commit": "35e397ce467bedbbbb5bfcd0aa79727b59a08d4a" },
  "vim-fugitive": { "branch": "master", "commit": "320b18fba2a4f2fe3c8225c778c687e0d2620384" },
  "vim-maximizer": { "branch": "master", "commit": "2e54952fe91e140a2e69f35f22131219fcd9c5f1" },
  "vim-surround": { "branch": "master", "commit": "3d188ed2113431cf8dac77be61b842acb64433d9" },
  "vim-tmux-navigator": { "branch": "master", "commit": "424b5caa154bff34dc258ee53cec5a8e36cf7ea8" }
}
